{
  "fluentMethods": true,
  "clientRootFolder": "",
  "relationships": [
    {
      "relationshipName": "curveDefinition",
      "otherEntityName": "curveDefinition",
      "relationshipType": "many-to-one",
      "otherEntityField": "id",
      "otherEntityRelationshipName": "curveSecurity"
    }
  ],
  "fields": [
    {
      "fieldName": "version",
      "fieldType": "Long"
    },
    {
      "fieldName": "securityId",
      "fieldType": "Integer"
    }
  ],
  "changelogDate": "20201004173902",
  "dto": "no",
  "searchEngine": false,
  "service": "no",
  "entityTableName": "curve_security",
  "databaseType": "sql",
  "readOnly": false,
  "jpaMetamodelFiltering": false,
  "pagination": "infinite-scroll"
}
